^C:\USERS\OIHAN\PICTURES\SARRERA\01SIMPLESTATICDEMO\01SIMPLESTATICDEMOMAIN.C|C:\USERS\OIHAN\PICTURES\SARRERA\SIMPLESDLWRAPPER\EBENTOAK.C|C:\USERS\OIHAN\PICTURES\SARRERA\SIMPLESDLWRAPPER\GRAPHICS.C|C:\USERS\OIHAN\PICTURES\SARRERA\SIMPLESDLWRAPPER\IMAGEN.C|C:\USERS\OIHAN\PICTURES\SARRERA\SIMPLESDLWRAPPER\SOINUA.C|C:\USERS\OIHAN\PICTURES\SARRERA\SIMPLESDLWRAPPER\TEXT.C
C:\USERS\OIHAN\PICTURES\SARRERA\01SIMPLESTATICDEMO\DEBUG\VC142.PDB
C:\USERS\OIHAN\PICTURES\SARRERA\01SIMPLESTATICDEMO\DEBUG\VC142.IDB
C:\USERS\OIHAN\PICTURES\SARRERA\01SIMPLESTATICDEMO\DEBUG\01SIMPLESTATICDEMOMAIN.OBJ
C:\USERS\OIHAN\PICTURES\SARRERA\01SIMPLESTATICDEMO\DEBUG\TEXT.OBJ
C:\USERS\OIHAN\PICTURES\SARRERA\01SIMPLESTATICDEMO\DEBUG\SOINUA.OBJ
C:\USERS\OIHAN\PICTURES\SARRERA\01SIMPLESTATICDEMO\DEBUG\IMAGEN.OBJ
C:\USERS\OIHAN\PICTURES\SARRERA\01SIMPLESTATICDEMO\DEBUG\GRAPHICS.OBJ
C:\USERS\OIHAN\PICTURES\SARRERA\01SIMPLESTATICDEMO\DEBUG\EBENTOAK.OBJ
^C:\USERS\OIHAN\PICTURES\SARRERA\SIMPLESDLWRAPPER\EBENTOAK.C
C:\USERS\OIHAN\PICTURES\SARRERA\01SIMPLESTATICDEMO\DEBUG\VC142.PDB
^C:\USERS\OIHAN\PICTURES\SARRERA\SIMPLESDLWRAPPER\GRAPHICS.C
C:\USERS\OIHAN\PICTURES\SARRERA\01SIMPLESTATICDEMO\DEBUG\VC142.PDB
^C:\USERS\OIHAN\PICTURES\SARRERA\SIMPLESDLWRAPPER\IMAGEN.C
C:\USERS\OIHAN\PICTURES\SARRERA\01SIMPLESTATICDEMO\DEBUG\VC142.PDB
^C:\USERS\OIHAN\PICTURES\SARRERA\SIMPLESDLWRAPPER\SOINUA.C
C:\USERS\OIHAN\PICTURES\SARRERA\01SIMPLESTATICDEMO\DEBUG\VC142.PDB
^C:\USERS\OIHAN\PICTURES\SARRERA\SIMPLESDLWRAPPER\TEXT.C
C:\USERS\OIHAN\PICTURES\SARRERA\01SIMPLESTATICDEMO\DEBUG\VC142.PDB
^C:\USERS\OIHAN\PICTURES\SARRERA\01SIMPLESTATICDEMO\01SIMPLESTATICDEMOMAIN.C
C:\USERS\OIHAN\PICTURES\SARRERA\01SIMPLESTATICDEMO\DEBUG\VC142.PDB
