^C:\USERS\OIHAN\PICTURES\SDLEXAMPLESVCWS\01SIMPLESTATICDEMO\DEBUG\01SIMPLESTATICDEMOMAIN.OBJ|C:\USERS\OIHAN\PICTURES\SDLEXAMPLESVCWS\01SIMPLESTATICDEMO\DEBUG\EBENTOAK.OBJ|C:\USERS\OIHAN\PICTURES\SDLEXAMPLESVCWS\01SIMPLESTATICDEMO\DEBUG\GRAPHICS.OBJ|C:\USERS\OIHAN\PICTURES\SDLEXAMPLESVCWS\01SIMPLESTATICDEMO\DEBUG\IMAGEN.OBJ|C:\USERS\OIHAN\PICTURES\SDLEXAMPLESVCWS\01SIMPLESTATICDEMO\DEBUG\SOINUA.OBJ|C:\USERS\OIHAN\PICTURES\SDLEXAMPLESVCWS\01SIMPLESTATICDEMO\DEBUG\TEXT.OBJ
/OUT:"C:\USERS\OIHAN\PICTURES\SDLEXAMPLESVCWS\DEBUG\01SIMPLESTATICDEMO.EXE" /INCREMENTAL /NOLOGO /LIBPATH:C:\USERS\OIHAN\PICTURES\SDLEXAMPLESVCWS\\SDL2\LIBS /LIBPATH:C:\USERS\OIHAN\PICTURES\SDLEXAMPLESVCWS\\SDL2IMAGE\LIBS /LIBPATH:C:\USERS\OIHAN\PICTURES\SDLEXAMPLESVCWS\\SDL2MIXER\LIBS /LIBPATH:C:\USERS\OIHAN\PICTURES\SDLEXAMPLESVCWS\\SDL2TTF\LIBS SDL2.LIB SDL2MAIN.LIB SDL2_IMAGE.LIB SDL2_TTF.LIB SDL2_MIXER.LIB KERNEL32.LIB USER32.LIB GDI32.LIB WINSPOOL.LIB COMDLG32.LIB ADVAPI32.LIB SHELL32.LIB OLE32.LIB OLEAUT32.LIB UUID.LIB ODBC32.LIB ODBCCP32.LIB KERNEL32.LIB USER32.LIB GDI32.LIB WINSPOOL.LIB COMDLG32.LIB ADVAPI32.LIB SHELL32.LIB OLE32.LIB OLEAUT32.LIB UUID.LIB ODBC32.LIB ODBCCP32.LIB /MANIFEST /MANIFESTUAC:"level='asInvoker' uiAccess='false'" /manifest:embed /DEBUG:FASTLINK /PDB:"C:\USERS\OIHAN\PICTURES\SDLEXAMPLESVCWS\DEBUG\01SIMPLESTATICDEMO.PDB" /SUBSYSTEM:CONSOLE /TLBID:1 /DYNAMICBASE /NXCOMPAT /IMPLIB:"C:\USERS\OIHAN\PICTURES\SDLEXAMPLESVCWS\DEBUG\01SIMPLESTATICDEMO.LIB" /MACHINE:X86 DEBUG\EBENTOAK.OBJDEBUG\GRAPHICS.OBJDEBUG\IMAGEN.OBJDEBUG\SOINUA.OBJDEBUG\TEXT.OBJDEBUG\01SIMPLESTATICDEMOMAIN.OBJ
^C:\USERS\OIHAN\PICTURES\SARRERA\01SIMPLESTATICDEMO\DEBUG\01SIMPLESTATICDEMOMAIN.OBJ|C:\USERS\OIHAN\PICTURES\SARRERA\01SIMPLESTATICDEMO\DEBUG\EBENTOAK.OBJ|C:\USERS\OIHAN\PICTURES\SARRERA\01SIMPLESTATICDEMO\DEBUG\GRAPHICS.OBJ|C:\USERS\OIHAN\PICTURES\SARRERA\01SIMPLESTATICDEMO\DEBUG\IMAGEN.OBJ|C:\USERS\OIHAN\PICTURES\SARRERA\01SIMPLESTATICDEMO\DEBUG\SOINUA.OBJ|C:\USERS\OIHAN\PICTURES\SARRERA\01SIMPLESTATICDEMO\DEBUG\TEXT.OBJ
/OUT:"C:\USERS\OIHAN\PICTURES\SARRERA\DEBUG\01SIMPLESTATICDEMO.EXE" /INCREMENTAL /NOLOGO /LIBPATH:C:\USERS\OIHAN\PICTURES\SARRERA\\SDL2\LIBS /LIBPATH:C:\USERS\OIHAN\PICTURES\SARRERA\\SDL2IMAGE\LIBS /LIBPATH:C:\USERS\OIHAN\PICTURES\SARRERA\\SDL2MIXER\LIBS /LIBPATH:C:\USERS\OIHAN\PICTURES\SARRERA\\SDL2TTF\LIBS SDL2.LIB SDL2MAIN.LIB SDL2_IMAGE.LIB SDL2_TTF.LIB SDL2_MIXER.LIB KERNEL32.LIB USER32.LIB GDI32.LIB WINSPOOL.LIB COMDLG32.LIB ADVAPI32.LIB SHELL32.LIB OLE32.LIB OLEAUT32.LIB UUID.LIB ODBC32.LIB ODBCCP32.LIB KERNEL32.LIB USER32.LIB GDI32.LIB WINSPOOL.LIB COMDLG32.LIB ADVAPI32.LIB SHELL32.LIB OLE32.LIB OLEAUT32.LIB UUID.LIB ODBC32.LIB ODBCCP32.LIB /MANIFEST /MANIFESTUAC:"level='asInvoker' uiAccess='false'" /manifest:embed /DEBUG:FASTLINK /PDB:"C:\USERS\OIHAN\PICTURES\SARRERA\DEBUG\01SIMPLESTATICDEMO.PDB" /SUBSYSTEM:CONSOLE /TLBID:1 /DYNAMICBASE /NXCOMPAT /IMPLIB:"C:\USERS\OIHAN\PICTURES\SARRERA\DEBUG\01SIMPLESTATICDEMO.LIB" /MACHINE:X86 DEBUG\EBENTOAK.OBJDEBUG\GRAPHICS.OBJDEBUG\IMAGEN.OBJDEBUG\SOINUA.OBJDEBUG\TEXT.OBJDEBUG\01SIMPLESTATICDEMOMAIN.OBJ
