^C:\USERS\OIHAN\PICTURES\SARRERA\01SIMPLESTATICDEMO\DEBUG\01SIMPLESTATICDEMOMAIN.OBJ|C:\USERS\OIHAN\PICTURES\SARRERA\01SIMPLESTATICDEMO\DEBUG\EBENTOAK.OBJ|C:\USERS\OIHAN\PICTURES\SARRERA\01SIMPLESTATICDEMO\DEBUG\GRAPHICS.OBJ|C:\USERS\OIHAN\PICTURES\SARRERA\01SIMPLESTATICDEMO\DEBUG\IMAGEN.OBJ|C:\USERS\OIHAN\PICTURES\SARRERA\01SIMPLESTATICDEMO\DEBUG\SOINUA.OBJ|C:\USERS\OIHAN\PICTURES\SARRERA\01SIMPLESTATICDEMO\DEBUG\TEXT.OBJ
C:\USERS\OIHAN\PICTURES\SARRERA\DEBUG\01SIMPLESTATICDEMO.ILK
C:\USERS\OIHAN\PICTURES\SARRERA\DEBUG\01SIMPLESTATICDEMO.EXE
C:\USERS\OIHAN\PICTURES\SARRERA\DEBUG\01SIMPLESTATICDEMO.PDB
