^C:\USERS\OIHAN\PICTURES\SARRERA\02SIMPLEGAME\DEBUG\02SIMPLEGAMEMAIN.OBJ|C:\USERS\OIHAN\PICTURES\SARRERA\02SIMPLEGAME\DEBUG\EBENTOAK.OBJ|C:\USERS\OIHAN\PICTURES\SARRERA\02SIMPLEGAME\DEBUG\GAME02.OBJ|C:\USERS\OIHAN\PICTURES\SARRERA\02SIMPLEGAME\DEBUG\GRAPHICS.OBJ|C:\USERS\OIHAN\PICTURES\SARRERA\02SIMPLEGAME\DEBUG\IMAGEN.OBJ|C:\USERS\OIHAN\PICTURES\SARRERA\02SIMPLEGAME\DEBUG\SOINUA.OBJ|C:\USERS\OIHAN\PICTURES\SARRERA\02SIMPLEGAME\DEBUG\TEXT.OBJ
C:\USERS\OIHAN\PICTURES\SARRERA\SDL2\LIBS\SDL2.LIB
C:\USERS\OIHAN\PICTURES\SARRERA\SDL2\LIBS\SDL2MAIN.LIB
C:\USERS\OIHAN\PICTURES\SARRERA\SDL2IMAGE\LIBS\SDL2_IMAGE.LIB
C:\USERS\OIHAN\PICTURES\SARRERA\SDL2TTF\LIBS\SDL2_TTF.LIB
C:\USERS\OIHAN\PICTURES\SARRERA\SDL2MIXER\LIBS\SDL2_MIXER.LIB
C:\PROGRAM FILES (X86)\WINDOWS KITS\10\LIB\10.0.18362.0\UM\X86\KERNEL32.LIB
C:\PROGRAM FILES (X86)\WINDOWS KITS\10\LIB\10.0.18362.0\UM\X86\USER32.LIB
C:\PROGRAM FILES (X86)\WINDOWS KITS\10\LIB\10.0.18362.0\UM\X86\GDI32.LIB
C:\PROGRAM FILES (X86)\WINDOWS KITS\10\LIB\10.0.18362.0\UM\X86\WINSPOOL.LIB
C:\PROGRAM FILES (X86)\WINDOWS KITS\10\LIB\10.0.18362.0\UM\X86\COMDLG32.LIB
C:\PROGRAM FILES (X86)\WINDOWS KITS\10\LIB\10.0.18362.0\UM\X86\ADVAPI32.LIB
C:\PROGRAM FILES (X86)\WINDOWS KITS\10\LIB\10.0.18362.0\UM\X86\SHELL32.LIB
C:\PROGRAM FILES (X86)\WINDOWS KITS\10\LIB\10.0.18362.0\UM\X86\OLE32.LIB
C:\PROGRAM FILES (X86)\WINDOWS KITS\10\LIB\10.0.18362.0\UM\X86\OLEAUT32.LIB
C:\PROGRAM FILES (X86)\WINDOWS KITS\10\LIB\10.0.18362.0\UM\X86\UUID.LIB
C:\PROGRAM FILES (X86)\WINDOWS KITS\10\LIB\10.0.18362.0\UM\X86\ODBC32.LIB
C:\PROGRAM FILES (X86)\WINDOWS KITS\10\LIB\10.0.18362.0\UM\X86\ODBCCP32.LIB
C:\USERS\OIHAN\PICTURES\SARRERA\02SIMPLEGAME\DEBUG\EBENTOAK.OBJ
C:\USERS\OIHAN\PICTURES\SARRERA\02SIMPLEGAME\DEBUG\GRAPHICS.OBJ
C:\USERS\OIHAN\PICTURES\SARRERA\02SIMPLEGAME\DEBUG\IMAGEN.OBJ
C:\USERS\OIHAN\PICTURES\SARRERA\02SIMPLEGAME\DEBUG\SOINUA.OBJ
C:\USERS\OIHAN\PICTURES\SARRERA\02SIMPLEGAME\DEBUG\TEXT.OBJ
C:\USERS\OIHAN\PICTURES\SARRERA\02SIMPLEGAME\DEBUG\02SIMPLEGAMEMAIN.OBJ
C:\USERS\OIHAN\PICTURES\SARRERA\02SIMPLEGAME\DEBUG\GAME02.OBJ
C:\WINDOWS\SYSTEM32\TZRES.DLL
C:\WINDOWS\GLOBALIZATION\SORTING\SORTDEFAULT.NLS
C:\PROGRAM FILES (X86)\MICROSOFT VISUAL STUDIO\2019\COMMUNITY\VC\TOOLS\MSVC\14.22.27905\LIB\X86\MSVCRTD.LIB
C:\PROGRAM FILES (X86)\MICROSOFT VISUAL STUDIO\2019\COMMUNITY\VC\TOOLS\MSVC\14.22.27905\LIB\X86\OLDNAMES.LIB
C:\PROGRAM FILES (X86)\MICROSOFT VISUAL STUDIO\2019\COMMUNITY\VC\TOOLS\MSVC\14.22.27905\LIB\X86\VCRUNTIMED.LIB
C:\PROGRAM FILES (X86)\WINDOWS KITS\10\LIB\10.0.18362.0\UCRT\X86\UCRTD.LIB
